{
    "allowCompoundWords": true,
    "dictionaries": [
        "project-words"
    ],
    "dictionaryDefinitions": [
        {
            "addWords": true,
            "name": "project-words",
            "path": "./words-project.txt"
        }
    ],
    "ignorePaths": [
        "./LICENSE",
        "./assets/assets/**",
        "./assets/files/**",
        "./assets/images/**",
        "./assets/vendor/**",
        "./assets/css/screen.post.css",
        "./i18n/**",
        "./layouts/index.htaccess",
        "./node_modules",
        "./hugo-resources",
        "./resources",
        "./static",
        "./scripts",
        "./tests/scripts/**",
        "./words-*.txt",
        "./package*.json",
        "./config/*/params.yaml",
        "./go.*",
        ".gitattributes",
        ".gitignore",
        "**/*.svg"
    ],
    "ignoreWords": [],
    "language": "en,en-ca,en-gb",
    "version": "0.2"
}
